…
The included `valid_city` and `valid_zip` vectors are sorted, unique
columns from the `zipcodes` data frame.

``` r
sample_frac(zipcodes)
#> # A tibble: 44,336 × 3
#>    city       state zip  
#>    <chr>      <chr> <chr>
#>  1 SAN JUAN   PR    00914
#>  2 BRANCHDALE PA    17923
#>  3 ATHENS     IL    62613
#>  4 ALBANY     GA    31706
#>  5 HULL       IA    51239
#>  6 CHICAGO    IL    60640
#>  7 WASHINGTON DC    20380
#>  8 LA HONDA   CA    94020
#>  9 POMONA     CA    91767
#> 10 OSHKOSH    NE    69190
#> # … with 44,326 more rows
```
…
